…
``` r
mtw_data = 
  read_excel(
    path = "./data/Trash-Wheel-Collection-Totals-8-6-19.xlsx",
    sheet = "Mr. Trash Wheel",
    range ="A2:N406") %>% 
  janitor::clean_names() %>% 
  drop_na(dumpster) %>% 
  mutate(sports_balls = as.integer(round(sports_balls)))
 
mtw_data
```

    ## # A tibble: 344 x 14
    ##    dumpster month  year date                weight_tons volume_cubic_ya~
    ##       <dbl> <chr> <dbl> <dttm>                    <dbl>            <dbl>
    ##  1        1 May    2014 2014-05-16 00:00:00        4.31               18
    ##  2        2 May    2014 2014-05-16 00:00:00        2.74               13
    ##  3        3 May    2014 2014-05-16 00:00:00        3.45               15
    ##  4        4 May    2014 2014-05-17 00:00:00        3.1                15
    ##  5        5 May    2014 2014-05-17 00:00:00        4.06               18
    ##  6        6 May    2014 2014-05-20 00:00:00        2.71               13
    ##  7        7 May    2014 2014-05-21 00:00:00        1.91                8
    ##  8        8 May    2014 2014-05-28 00:00:00        3.7                16
    ##  9        9 June   2014 2014-06-05 00:00:00        2.52               14
    ## 10       10 June   2014 2014-06-11 00:00:00        3.76               18
    ## # ... with 334 more rows, and 8 more variables: plastic_bottles <dbl>,
    ## #   polystyrene <dbl>, cigarette_butts <dbl>, glass_bottles <dbl>,
    ## #   grocery_bags <dbl>, chip_bags <dbl>, sports_balls <int>,
    ## #   homes_powered <dbl>
…
``` r
fj_dt = left_join(pm_dt, snp_dt, by = c("year", "month"))

pb2_dt = left_join(fj_dt, une_dt, by = c("year", "month"))

pb2_dt
```

    ## # A tibble: 817 x 11
    ##     year month president gov_gop sen_gop rep_gop gov_dem sen_dem rep_dem
    ##    <dbl> <chr> <chr>       <dbl>   <dbl>   <dbl>   <dbl>   <dbl>   <dbl>
    ##  1  1947 Janu~ dem            23      51     253      23      45     198
    ##  2  1947 Febr~ dem            23      51     253      23      45     198
    ##  3  1947 March dem            23      51     253      23      45     198
    ##  4  1947 April dem            23      51     253      23      45     198
    ##  5  1947 May   dem            23      51     253      23      45     198
    ##  6  1947 June  dem            23      51     253      23      45     198
    ##  7  1947 July  dem            23      51     253      23      45     198
    ##  8  1947 Augu~ dem            23      51     253      23      45     198
    ##  9  1947 Sept~ dem            23      51     253      23      45     198
    ## 10  1947 Octo~ dem            23      51     253      23      45     198
    ## # ... with 807 more rows, and 2 more variables: close <dbl>,
    ## #   unemployment <dbl>
…
``` r
  ##mutate(childs_first_name = capitalize_str(tolower(childs_first_name))) trying to capatilize first letter of word only
         

babynames_dt
```

    ## # A tibble: 19,418 x 6
    ##    year_of_birth gender ethnicity              childs_first_na~ count  rank
    ##            <dbl> <chr>  <chr>                  <chr>            <dbl> <dbl>
    ##  1          2016 FEMALE ASIAN AND PACIFIC ISL~ Olivia             172     1
    ##  2          2016 FEMALE ASIAN AND PACIFIC ISL~ Chloe              112     2
    ##  3          2016 FEMALE ASIAN AND PACIFIC ISL~ Sophia             104     3
    ##  4          2016 FEMALE ASIAN AND PACIFIC ISL~ Emily               99     4
    ##  5          2016 FEMALE ASIAN AND PACIFIC ISL~ Emma                99     4
    ##  6          2016 FEMALE ASIAN AND PACIFIC ISL~ Mia                 79     5
    ##  7          2016 FEMALE ASIAN AND PACIFIC ISL~ Charlotte           59     6
    ##  8          2016 FEMALE ASIAN AND PACIFIC ISL~ Sarah               57     7
    ##  9          2016 FEMALE ASIAN AND PACIFIC ISL~ Isabella            56     8
    ## 10          2016 FEMALE ASIAN AND PACIFIC ISL~ Hannah              56     8
    ## # ... with 19,408 more rows
